{
    "lnd_proto_path":"private/rpc.proto",
    "lnd_cert_path":"private/tls.cert",
    "lnd_macaroon_path":"private/admin.macaroon",
    "lnd_node_address":"34.77.55.95:10009",
    "gun_node_address":"http://localhost:3000",
    "default_channel_capacity":100000,
    "default_push_amount":1000,
    "domain":"192.168.0.20",
    "port":":8080",
    "callback_port":":8080",
    "protocol":"http://",
    "gun_peer":"http://gun.shock.network:8765/gun"
}